^C:\USERS\BASE\DESKTOP\MAGSHIMIM\11GRADE\C\19\HW17\PROJECT2\DEBUG\CLIENT.OBJ|C:\USERS\BASE\DESKTOP\MAGSHIMIM\11GRADE\C\19\HW17\PROJECT2\DEBUG\CRYPTODEVICE.OBJ
C:\USERS\BASE\DESKTOP\MAGSHIMIM\11GRADE\C\19\HW17\DEBUG\PROJECT2.ILK
C:\USERS\BASE\DESKTOP\MAGSHIMIM\11GRADE\C\19\HW17\DEBUG\PROJECT2.EXE
C:\USERS\BASE\DESKTOP\MAGSHIMIM\11GRADE\C\19\HW17\DEBUG\PROJECT2.PDB
